/home/user/corpay-ui/corpay-ui/trade-finance/trade-finance-shared/src/main/java/com/progressoft/corpay/tradefinance/shared/request/TradeFinanceRequest.java
/home/user/corpay-ui/corpay-ui/trade-finance/trade-finance-shared/src/main/java/com/progressoft/corpay/tradefinance/shared/extension/TradeFinanceContext.java
/home/user/corpay-ui/corpay-ui/trade-finance/trade-finance-shared/src/main/java/com/progressoft/corpay/tradefinance/shared/extension/TradeFinanceExtensionPoint.java
/home/user/corpay-ui/corpay-ui/trade-finance/trade-finance-shared/src/main/java/com/progressoft/corpay/tradefinance/shared/response/TradeFinanceResponse.java
