com/progressoft/corpay/loc/client/requests/LOCRequestsFactory$LOCRequests_request.class
com/progressoft/corpay/loc/client/locexport/presenters/LOCExportPresenterCommand.class
com/progressoft/corpay/loc/client/locexport/views/LOCExportView.class
com/progressoft/corpay/loc/client/requests/LOCRequests.class
com/progressoft/corpay/loc/client/LOCModuleConfiguration.class
com/progressoft/corpay/loc/client/LOCModuleConfiguration$2.class
com/progressoft/corpay/loc/client/views/LOCView.class
com/progressoft/corpay/loc/client/LOCModuleConfiguration_Provider.class
com/progressoft/corpay/loc/client/requests/LOCRequests_requestSender.class
META-INF/services/org.dominokit.domino.api.client.ModuleConfigurationProvider
com/progressoft/corpay/loc/client/locimport/views/LOCImportView.class
com/progressoft/corpay/loc/client/requests/LOCRequestsFactory.class
com/progressoft/corpay/loc/client/LOCModuleConfiguration$3.class
com/progressoft/corpay/loc/client/LOCModuleConfiguration$1.class
META-INF/domino/contributions
com/progressoft/corpay/loc/client/presenters/LOCPresenterCommand.class
com/progressoft/corpay/loc/client/locexport/presenters/LOCExportPresenter.class
com/progressoft/corpay/loc/client/locimport/presenters/LOCImportPresenter.class
com/progressoft/corpay/loc/client/LOCClientModule.class
com/progressoft/corpay/loc/client/presenters/LOCPresenter$1.class
META-INF/domino/presenters
com/progressoft/corpay/loc/client/presenters/LOCPresenter.class
com/progressoft/corpay/loc/client/contributions/LOCPresenterContributionToTradeFinanceExtensionPoint.class
META-INF/domino/views
com/progressoft/corpay/loc/client/locimport/presenters/LOCImportPresenterCommand.class
com/progressoft/corpay/loc/client/LOCModuleConfiguration$4.class
META-INF/domino/initialTasks
com/progressoft/corpay/loc/client/requests/LOCRequests_requestSender$1.class
com/progressoft/corpay/loc/client/requests/LOCRequests_requestSender$LOCRequests_requestService.class
META-INF/domino/commands
META-INF/domino/senders
