/home/user/corpay-ui/corpay-ui/app-module/app-module-frontend/src/main/java/com/progressoft/corpay/componentcase/client/views/AppModuleView.java
/home/user/corpay-ui/corpay-ui/app-module/app-module-frontend/src/main/java/com/progressoft/corpay/componentcase/client/presenters/AppModulePresenter.java
/home/user/corpay-ui/corpay-ui/app-module/app-module-frontend/src/main/java/com/progressoft/corpay/componentcase/client/AppModuleClientModule.java
