/home/user/corpay-ui/corpay-ui/corpay-configuration/corpay-configuration-frontend/src/main/java/com/progressoft/corpay/config/client/presenters/TradeFinanceConfigurationPresenter.java
/home/user/corpay-ui/corpay-ui/corpay-configuration/corpay-configuration-frontend/src/main/java/com/progressoft/corpay/config/client/views/TradeFinanceConfigurationView.java
/home/user/corpay-ui/corpay-ui/corpay-configuration/corpay-configuration-frontend/src/main/java/com/progressoft/corpay/config/client/TradeFinanceConfigurationClientModule.java
/home/user/corpay-ui/corpay-ui/corpay-configuration/corpay-configuration-frontend/src/main/java/com/progressoft/corpay/config/client/requests/TradeFinanceConfigurationRequests.java
/home/user/corpay-ui/corpay-ui/corpay-configuration/corpay-configuration-frontend/src/main/java/com/progressoft/corpay/config/client/views/DefaultTradeConfigurationView.java
