/home/user/corpay-ui/corpay-ui/corpay-configuration/corpay-configuration-shared/src/main/java/com/progressoft/corpay/config/shared/extension/TradeFinanceConfigurationExtensionPoint.java
/home/user/corpay-ui/corpay-ui/corpay-configuration/corpay-configuration-shared/src/main/java/com/progressoft/corpay/config/shared/LayoutConfig.java
/home/user/corpay-ui/corpay-ui/corpay-configuration/corpay-configuration-shared/src/main/java/com/progressoft/corpay/config/shared/response/TradeFinanceConfigurationResponse.java
/home/user/corpay-ui/corpay-ui/corpay-configuration/corpay-configuration-shared/src/main/java/com/progressoft/corpay/config/shared/extension/TradeFinanceConfigurationContext.java
/home/user/corpay-ui/corpay-ui/corpay-configuration/corpay-configuration-shared/src/main/java/com/progressoft/corpay/config/shared/request/TradeFinanceConfigurationRequest.java
