META-INF/domino/contributions
com/progressoft/corpay/loc/client/LOCUIModuleConfiguration$1.class
com/progressoft/corpay/loc/client/LOCUIClientModule.class
META-INF/domino/presenters
com/progressoft/corpay/loc/client/LOCUIModuleConfiguration$3.class
com/progressoft/corpay/loc/client/LOCUIModuleConfiguration$2.class
com/progressoft/corpay/loc/client/locexport/ui/views/LOCExportViewImpl.class
META-INF/domino/views
com/progressoft/corpay/loc/client/LOCUIModuleConfiguration_Provider.class
com/progressoft/corpay/loc/client/locimport/ui/views/LOCImportViewImpl.class
META-INF/domino/initialTasks
com/progressoft/corpay/loc/client/ui/views/LOCViewImpl.class
META-INF/domino/commands
META-INF/services/org.dominokit.domino.api.client.ModuleConfigurationProvider
META-INF/domino/senders
com/progressoft/corpay/loc/client/ui/views/LOCBundle$Style.class
com/progressoft/corpay/loc/client/ui/views/Bundle.class
com/progressoft/corpay/loc/client/LOCUIModuleConfiguration.class
com/progressoft/corpay/loc/client/ui/views/LOCBundle.class
