com/progressoft/corpay/tradefinance/client/requests/TradeFinanceRequests_requestSender$1.class
com/progressoft/corpay/tradefinance/client/requests/TradeFinanceRequests_requestSender$TradeFinanceRequests_requestService.class
com/progressoft/corpay/tradefinance/client/TradeFinanceModuleConfiguration.class
com/progressoft/corpay/tradefinance/client/presenters/TradeFinancePresenter$1.class
com/progressoft/corpay/tradefinance/client/TradeFinanceModuleConfiguration$2.class
com/progressoft/corpay/tradefinance/client/contributions/TradeFinancePresenterContributionToAppModuleExtensionPoint.class
com/progressoft/corpay/tradefinance/client/views/TradeFinanceView.class
com/progressoft/corpay/tradefinance/client/requests/TradeFinanceRequests.class
META-INF/services/org.dominokit.domino.api.client.ModuleConfigurationProvider
com/progressoft/corpay/tradefinance/client/TradeFinanceModuleConfiguration_Provider.class
META-INF/domino/contributions
com/progressoft/corpay/tradefinance/client/TradeFinanceModuleConfiguration$1.class
META-INF/domino/presenters
com/progressoft/corpay/tradefinance/client/requests/TradeFinanceRequests_requestSender.class
com/progressoft/corpay/tradefinance/client/requests/TradeFinanceRequestsFactory$TradeFinanceRequests_request.class
com/progressoft/corpay/tradefinance/client/TradeFinanceClientModule.class
com/progressoft/corpay/tradefinance/client/presenters/TradeFinancePresenterCommand.class
META-INF/domino/views
com/progressoft/corpay/tradefinance/client/presenters/TradeFinancePresenter.class
META-INF/domino/initialTasks
META-INF/domino/commands
META-INF/domino/senders
com/progressoft/corpay/tradefinance/client/requests/TradeFinanceRequestsFactory.class
